{
    "Description" : "Creates a systemd from jenkins",
    "Package_path": "/usr/bin/dotnet",
    "Service_url" : "",
    "Service_path": "/home/speedy/Documents/mydotnetprogramdll/dotnetprogram.dll"
}